{
  "getCountCheckInOutChildren" : {
    "transaction" : "getCountCheckInOutChildren",
    "sampleCount" : 5967,
    "errorCount" : 0,
    "errorPct" : 0.0,
    "meanResTime" : 250.4519859225736,
    "medianResTime" : 245.0,
    "minResTime" : 46.0,
    "maxResTime" : 1079.0,
    "pct1ResTime" : 372.0,
    "pct2ResTime" : 408.59999999999945,
    "pct3ResTime" : 482.3199999999997,
    "throughput" : 19.88549262167242,
    "receivedKBytesPerSec" : 12.486691167710319,
    "sentKBytesPerSec" : 24.604413234041953
  },
  "getLatestMobileVersion" : {
    "transaction" : "getLatestMobileVersion",
    "sampleCount" : 14884,
    "errorCount" : 0,
    "errorPct" : 0.0,
    "meanResTime" : 99.98159097016972,
    "medianResTime" : 66.0,
    "minResTime" : 10.0,
    "maxResTime" : 1043.0,
    "pct1ResTime" : 214.0,
    "pct2ResTime" : 254.0,
    "pct3ResTime" : 343.0,
    "throughput" : 49.62640161909303,
    "receivedKBytesPerSec" : 33.19734873933469,
    "sentKBytesPerSec" : 36.58977853751488
  },
  "findAllConfigByCategory" : {
    "transaction" : "findAllConfigByCategory",
    "sampleCount" : 6149,
    "errorCount" : 0,
    "errorPct" : 0.0,
    "meanResTime" : 243.0522036103434,
    "medianResTime" : 238.0,
    "minResTime" : 41.0,
    "maxResTime" : 1047.0,
    "pct1ResTime" : 362.0,
    "pct2ResTime" : 404.0,
    "pct3ResTime" : 487.5,
    "throughput" : 20.492363270379887,
    "receivedKBytesPerSec" : 23.173981120214755,
    "sentKBytesPerSec" : 26.616057763286378
  },
  "getNotifications" : {
    "transaction" : "getNotifications",
    "sampleCount" : 3595,
    "errorCount" : 0,
    "errorPct" : 0.0,
    "meanResTime" : 415.9031988873443,
    "medianResTime" : 431.0,
    "minResTime" : 87.0,
    "maxResTime" : 1125.0,
    "pct1ResTime" : 543.0,
    "pct2ResTime" : 571.0,
    "pct3ResTime" : 650.0799999999999,
    "throughput" : 11.979779332131468,
    "receivedKBytesPerSec" : 89.45057888034883,
    "sentKBytesPerSec" : 13.32516470634545
  },
  "getHomefeed" : {
    "transaction" : "getHomefeed",
    "sampleCount" : 404,
    "errorCount" : 0,
    "errorPct" : 0.0,
    "meanResTime" : 3715.0445544554464,
    "medianResTime" : 3691.0,
    "minResTime" : 3262.0,
    "maxResTime" : 4541.0,
    "pct1ResTime" : 3981.5,
    "pct2ResTime" : 4061.0,
    "pct3ResTime" : 4356.949999999999,
    "throughput" : 1.3408651899448387,
    "receivedKBytesPerSec" : 28.443626617169713,
    "sentKBytesPerSec" : 6.709563704372416
  },
  "Total" : {
    "transaction" : "Total",
    "sampleCount" : 53965,
    "errorCount" : 0,
    "errorPct" : 0.0,
    "meanResTime" : 277.00233484666444,
    "medianResTime" : 223.0,
    "minResTime" : 10.0,
    "maxResTime" : 4541.0,
    "pct1ResTime" : 453.0,
    "pct2ResTime" : 526.0,
    "pct3ResTime" : 807.9900000000016,
    "throughput" : 179.1077965741672,
    "receivedKBytesPerSec" : 630.9280360310688,
    "sentKBytesPerSec" : 302.72702077608125
  },
  "me" : {
    "transaction" : "me",
    "sampleCount" : 4479,
    "errorCount" : 0,
    "errorPct" : 0.0,
    "meanResTime" : 333.84192900200935,
    "medianResTime" : 341.0,
    "minResTime" : 74.0,
    "maxResTime" : 1109.0,
    "pct1ResTime" : 482.0,
    "pct2ResTime" : 516.0,
    "pct3ResTime" : 582.0,
    "throughput" : 14.92621869126488,
    "receivedKBytesPerSec" : 19.63594678410636,
    "sentKBytesPerSec" : 47.30037075503372
  },
  "findAllChildrenByParent" : {
    "transaction" : "findAllChildrenByParent",
    "sampleCount" : 4857,
    "errorCount" : 0,
    "errorPct" : 0.0,
    "meanResTime" : 307.82664196005703,
    "medianResTime" : 311.0,
    "minResTime" : 58.0,
    "maxResTime" : 1107.0,
    "pct1ResTime" : 457.0,
    "pct2ResTime" : 492.0,
    "pct3ResTime" : 551.4200000000001,
    "throughput" : 16.1858995721084,
    "receivedKBytesPerSec" : 18.177523933520174,
    "sentKBytesPerSec" : 25.85950361325131
  },
  "getAllClassInfo" : {
    "transaction" : "getAllClassInfo",
    "sampleCount" : 2623,
    "errorCount" : 0,
    "errorPct" : 0.0,
    "meanResTime" : 570.4830346931011,
    "medianResTime" : 565.0,
    "minResTime" : 116.0,
    "maxResTime" : 1393.0,
    "pct1ResTime" : 762.0,
    "pct2ResTime" : 809.0,
    "pct3ResTime" : 892.7599999999998,
    "throughput" : 8.737188177648386,
    "receivedKBytesPerSec" : 24.931127216566015,
    "sentKBytesPerSec" : 22.431706756872664
  },
  "findAllSchoolConfig" : {
    "transaction" : "findAllSchoolConfig",
    "sampleCount" : 5297,
    "errorCount" : 0,
    "errorPct" : 0.0,
    "meanResTime" : 282.0285067019055,
    "medianResTime" : 275.0,
    "minResTime" : 56.0,
    "maxResTime" : 1114.0,
    "pct1ResTime" : 426.0,
    "pct2ResTime" : 464.0,
    "pct3ResTime" : 544.0199999999995,
    "throughput" : 17.651900653490227,
    "receivedKBytesPerSec" : 374.258217859303,
    "sentKBytesPerSec" : 12.945876358174958
  },
  "getChildCheckInCheckOut" : {
    "transaction" : "getChildCheckInCheckOut",
    "sampleCount" : 5710,
    "errorCount" : 0,
    "errorPct" : 0.0,
    "meanResTime" : 261.7523642732046,
    "medianResTime" : 257.0,
    "minResTime" : 49.0,
    "maxResTime" : 1100.0,
    "pct1ResTime" : 391.0,
    "pct2ResTime" : 430.0,
    "pct3ResTime" : 497.8900000000003,
    "throughput" : 19.028703015599536,
    "receivedKBytesPerSec" : 9.625847814531799,
    "sentKBytesPerSec" : 87.56176622021975
  }
}